<svg width="460" height="232" viewBox="0 0 460 232" fill="none" xmlns="http://www.w3.org/2000/svg">
<path fill-rule="evenodd" clip-rule="evenodd" d="M249.928 29.8029C250.653 13.2342 264.889 0 282.303 0C300.196 0 314.722 13.9555 314.722 31.1452C314.722 48.3348 300.196 62.2903 282.303 62.2903C269.248 62.2903 257.977 54.851 252.849 44.1441C245.736 44.9624 237.877 45.5443 229.861 45.5443C221.845 45.5443 213.975 44.9624 206.873 44.1441C201.734 54.851 190.474 62.2903 177.408 62.2903C159.515 62.2903 145 48.3348 145 31.1452C145 13.9555 159.515 0 177.408 0C194.833 0 209.058 13.2342 209.794 29.8029C216.115 30.4506 222.938 30.8854 229.861 30.8854C236.784 30.8854 243.607 30.4506 249.928 29.8029Z" fill="url(#paint0_linear_629_897)"/>
<path d="M103.052 125.009C103.523 123.782 103.366 122.402 102.737 121.329C101.952 120.255 100.695 119.642 99.438 119.642C97.8669 119.642 96.2957 120.562 95.6672 121.942C90.0111 134.976 62.2015 198.612 55.1313 214.712C54.9742 215.326 54.3457 215.786 53.5602 215.786C52.7746 215.786 52.1461 215.326 51.989 214.712C44.9188 198.612 17.4235 135.436 11.6102 122.095C10.9817 120.562 9.41058 119.642 7.6823 119.642C6.42537 119.642 5.01133 120.409 4.22575 121.482C3.44017 122.555 3.44017 124.089 3.91152 125.315C13.0242 145.556 43.1905 213.026 48.8467 225.599C49.4751 226.979 50.7321 227.746 52.1461 227.746H54.8171C56.074 227.746 57.3309 226.979 57.9594 225.753C63.6156 213.179 94.0961 144.79 103.052 125.009Z" fill="url(#paint1_radial_629_897)"/>
<path d="M453.242 227.748C454.814 227.748 456.071 226.981 456.699 225.601C457.327 224.374 457.17 222.841 456.228 221.767C447.586 211.34 430.461 190.639 426.061 185.426C425.59 184.659 425.59 183.739 426.219 183.126C430.461 178.986 445.544 164.112 454.028 155.525C455.128 154.605 455.442 153.071 454.814 151.691C454.342 150.465 452.928 149.545 451.514 149.545C450.571 149.545 449.629 150.005 448.843 150.618C442.873 156.751 412.707 187.113 403.122 196.773C402.651 197.233 402.023 197.386 401.394 197.08C400.766 196.926 400.294 196.313 400.294 195.7V119.49C400.294 117.497 398.566 115.81 396.524 115.81H396.366C394.324 115.81 392.596 117.497 392.596 119.49V224.067C392.596 226.061 394.324 227.748 396.366 227.748H396.524C398.566 227.748 400.294 226.061 400.294 224.067V209.5C400.294 209.04 400.451 208.58 400.766 208.274C403.437 205.667 414.592 194.626 418.52 190.793C418.834 190.486 419.305 190.333 419.777 190.333C420.248 190.333 420.719 190.639 421.034 190.946C425.904 197.08 445.387 220.387 450.414 226.368C451.043 227.288 452.143 227.748 453.242 227.748Z" fill="url(#paint2_radial_629_897)"/>
<path d="M332.89 154.557H328.34C320.173 154.557 314.979 157.036 310.574 161.884C306.185 166.748 303.982 173.213 303.982 181.279V223.99C303.982 226.061 302.262 227.74 300.14 227.74C298.001 227.74 296.281 226.061 296.281 223.99C296.281 212.708 296.281 179.898 296.281 179.898C296.281 175.206 296.989 170.875 298.404 166.953C299.818 163.014 301.908 159.609 304.69 156.753C307.471 153.882 310.848 151.669 314.819 150.085C318.806 148.5 323.308 147.699 328.34 147.699H332.89C337.922 147.699 342.424 148.5 346.395 150.085C350.382 151.669 353.759 153.882 356.54 156.753C359.306 159.609 361.412 163.014 362.826 166.953C364.241 170.875 364.949 175.206 364.949 179.898V223.99C364.949 224.979 364.531 225.936 363.807 226.642C363.1 227.348 362.119 227.74 361.09 227.74C360.077 227.74 359.096 227.348 358.373 226.642C357.649 225.936 357.247 224.979 357.247 223.99C357.247 212.928 357.247 181.279 357.247 181.279C357.247 173.213 355.045 166.748 350.64 161.884C346.251 157.036 341.057 154.557 332.89 154.557Z" fill="url(#paint3_radial_629_897)"/>
<path d="M227.292 186.503C227.292 184.636 228.835 183.129 230.732 183.129C238.61 183.129 257.614 183.129 263.724 183.129C264.222 183.129 264.688 182.91 265.026 182.549C265.364 182.188 265.508 181.717 265.46 181.231C265.058 177.92 264.302 174.75 263.209 171.706C261.891 168.066 260.058 164.849 257.695 162.04C255.331 159.232 252.405 156.972 248.948 155.293C245.476 153.598 241.44 152.767 236.81 152.767C232.823 152.767 229.093 153.536 225.636 155.058C222.163 156.596 219.14 158.714 216.568 161.428C213.995 164.143 211.873 167.36 210.185 171.094C208.513 174.813 207.516 178.83 207.195 183.129C207.195 183.129 207.05 187.397 207.195 189.876C207.307 191.618 208.626 199.071 210.507 202.837C212.404 206.603 214.767 209.804 217.597 212.456C220.427 215.092 223.658 217.101 227.292 218.481C230.909 219.847 234.72 220.537 238.707 220.537C245.009 220.537 250.331 219.36 254.688 217.007C258.08 215.186 261.183 213.005 263.965 210.51C265.299 209.271 267.389 209.239 268.772 210.432C269.528 211.075 269.962 212.001 269.994 212.974C270.01 213.962 269.608 214.904 268.885 215.579C265.476 218.67 261.762 221.322 257.695 223.534C252.502 226.343 246.07 227.739 238.401 227.739C233.144 227.739 228.128 226.782 223.353 224.836C218.578 222.891 214.382 220.129 210.764 216.551C207.147 212.974 204.285 208.675 202.178 203.669C200.072 198.664 199.027 193.093 199.027 186.958V186.644C199.027 181.027 199.992 175.739 201.937 170.78C203.867 165.822 206.552 161.507 209.944 157.819C213.353 154.148 217.356 151.229 221.97 149.079C226.584 146.93 231.6 145.863 237.051 145.863C242.71 145.863 247.791 146.914 252.292 149.001C256.794 151.104 260.637 153.991 263.836 157.662C267.036 161.35 269.495 165.665 271.216 170.623C272.904 175.441 273.772 180.666 273.821 186.299C273.821 186.393 273.804 187.35 273.772 188.26C273.692 189.17 272.92 189.861 272.004 189.861C265.267 189.876 240.025 189.876 230.732 189.876C229.832 189.876 228.948 189.516 228.289 188.888C227.645 188.245 227.292 187.397 227.292 186.503Z" fill="url(#paint4_radial_629_897)"/>
<path d="M135.536 186.503C135.536 184.636 137.079 183.129 138.977 183.129C146.838 183.129 165.794 183.129 171.936 183.129C172.434 183.129 172.917 182.91 173.254 182.549C173.592 182.172 173.753 181.686 173.704 181.199C173.302 177.904 172.547 174.735 171.453 171.706C170.135 168.066 168.302 164.849 165.939 162.04C163.575 159.232 160.649 156.972 157.193 155.293C153.72 153.598 149.684 152.767 145.054 152.767C141.067 152.767 137.337 153.536 133.88 155.058C130.407 156.596 127.384 158.714 124.812 161.428C122.24 164.143 120.117 167.36 118.429 171.094C116.757 174.813 115.761 178.83 115.439 183.129C115.439 183.129 115.294 187.397 115.439 189.876C115.552 191.618 116.87 199.071 118.751 202.837C120.648 206.603 123.012 209.804 125.841 212.456C128.671 215.092 131.903 217.101 135.536 218.481C139.154 219.847 142.964 220.537 146.951 220.537C153.253 220.537 158.575 219.36 162.932 217.007C166.324 215.186 169.427 213.005 172.209 210.51C173.543 209.271 175.633 209.239 177.016 210.432C177.772 211.075 178.206 212.001 178.238 212.974C178.254 213.962 177.852 214.904 177.129 215.579C173.72 218.67 170.006 221.322 165.939 223.534C160.746 226.343 154.315 227.739 146.646 227.739C141.388 227.739 136.372 226.782 131.597 224.836C126.822 222.891 122.626 220.129 119.008 216.551C115.391 212.974 112.529 208.675 110.423 203.669C108.316 198.664 107.271 193.093 107.271 186.958V186.644C107.271 181.027 108.236 175.739 110.182 170.78C112.111 165.822 114.796 161.507 118.188 157.819C121.597 154.148 125.6 151.229 130.214 149.079C134.829 146.93 139.845 145.863 145.295 145.863C150.954 145.863 156.035 146.914 160.536 149.001C165.038 151.104 168.881 153.991 172.081 157.662C175.28 161.35 177.74 165.665 179.46 170.623C181.116 175.362 181.984 180.493 182.049 186.016C182.065 186.173 182.032 187.287 182 188.292C181.936 189.186 181.18 189.861 180.264 189.861C173.575 189.876 148.285 189.876 138.977 189.876C138.076 189.876 137.192 189.516 136.533 188.888C135.89 188.245 135.536 187.397 135.536 186.503Z" fill="url(#paint5_radial_629_897)"/>
<defs>
<linearGradient id="paint0_linear_629_897" x1="145" y1="60.875" x2="314.58" y2="-3.53224e-06" gradientUnits="userSpaceOnUse">
<stop stop-color="#6CD8A5"/>
<stop offset="0.48084" stop-color="#F7BA37"/>
<stop offset="1" stop-color="#F7456F"/>
</linearGradient>
<radialGradient id="paint1_radial_629_897" cx="0" cy="0" r="1" gradientUnits="userSpaceOnUse" gradientTransform="translate(497.872 77.5655) rotate(161.259) scale(555.592 545.229)">
<stop stop-color="#F73676"/>
<stop offset="0.5" stop-color="#F7BB36"/>
<stop offset="1" stop-color="#3AE3CC"/>
</radialGradient>
<radialGradient id="paint2_radial_629_897" cx="0" cy="0" r="1" gradientUnits="userSpaceOnUse" gradientTransform="translate(504.392 93.0178) rotate(163.839) scale(554.572 750.398)">
<stop stop-color="#F73676"/>
<stop offset="0.5" stop-color="#F7BB36"/>
<stop offset="1" stop-color="#3AE3CC"/>
</radialGradient>
<radialGradient id="paint3_radial_629_897" cx="0" cy="0" r="1" gradientUnits="userSpaceOnUse" gradientTransform="translate(489.178 134.326) rotate(167.471) scale(521.151 541.247)">
<stop stop-color="#F73676"/>
<stop offset="0.5" stop-color="#F7BB36"/>
<stop offset="1" stop-color="#3AE3CC"/>
</radialGradient>
<radialGradient id="paint4_radial_629_897" cx="0" cy="0" r="1" gradientUnits="userSpaceOnUse" gradientTransform="translate(493.525 103.889) rotate(163.346) scale(531.016 525.218)">
<stop stop-color="#F73676"/>
<stop offset="0.5" stop-color="#F7BB36"/>
<stop offset="1" stop-color="#3AE3CC"/>
</radialGradient>
<radialGradient id="paint5_radial_629_897" cx="0" cy="0" r="1" gradientUnits="userSpaceOnUse" gradientTransform="translate(487.001 99.5404) rotate(163.194) scale(556.423 550.416)">
<stop stop-color="#F73676"/>
<stop offset="0.5" stop-color="#F7BB36"/>
<stop offset="1" stop-color="#3AE3CC"/>
</radialGradient>
</defs>
</svg>
