[
	{
		"_id": {
			"$oid": "662f75166f260460ea58087e"
		},
		"projectId": {
			"$oid": "65632fe6b8b009e33968dba7"
		},
		"history": [
			{
				"date": "2024-05-12T19:08:20.453Z",
				"repos": {
					"linux": {
						"stars": 43366,
						"forks": 4679,
						"lastRelease": {
							"name": "v3.0.6",
							"publish_at": "2024-04-27T13:16:04Z"
						}
					}
				}
			},
			{
				"date": "2024-05-14T13:38:05.623Z",
				"repos": {
					"linux": {
						"stars": 43396,
						"forks": 4686,
						"lastRelease": {
							"name": "v3.0.6",
							"publish_at": "2024-04-27T13:16:04Z"
						}
					}
				}
			},
			{
				"date": "2024-05-14T14:38:05.531Z",
				"repos": {
					"linux": {
						"stars": 43396,
						"forks": 4686,
						"lastRelease": {
							"name": "v3.0.6",
							"publish_at": "2024-04-27T13:16:04Z"
						}
					}
				}
			},
			{
				"date": "2024-05-14T15:38:05.583Z",
				"repos": {
					"linux": {
						"stars": 43398,
						"forks": 4686,
						"lastRelease": {
							"name": "v3.0.6",
							"publish_at": "2024-04-27T13:16:04Z"
						}
					}
				}
			},
			{
				"date": "2024-05-14T16:38:05.757Z",
				"repos": {
					"linux": {
						"stars": 43399,
						"forks": 4686,
						"lastRelease": {
							"name": "v3.0.6",
							"publish_at": "2024-04-27T13:16:04Z"
						}
					}
				}
			}
		],
		"lastRepoImport": {
			"date": "2024-05-14T16:38:05.757Z",
			"repos": {
				"linux": {
					"stars": 43399,
					"forks": 4686,
					"lastRelease": {
						"name": "v3.0.6",
						"publish_at": "2024-04-27T13:16:04Z"
					}
				}
			}
		}
	},
	{
		"_id": {
			"$oid": "663545ca234f0b656afd7d43"
		},
		"projectId": {
			"$oid": "659d9d83c100a70f2daaa197"
		},
		"history": [
			{
				"date": "2024-05-12T19:08:20.499Z",
				"repos": {
					"android": {
						"stars": 443,
						"forks": 22,
						"lastRelease": {
							"name": "2.3.0+fork.105.moshinda",
							"publish_at": "2024-05-05T20:35:03Z"
						}
					}
				}
			},
			{
				"date": "2024-05-14T13:38:05.652Z",
				"repos": {
					"android": {
						"stars": 448,
						"forks": 22,
						"lastRelease": {
							"name": "2.3.0+fork.105.moshinda",
							"publish_at": "2024-05-05T20:35:03Z"
						}
					}
				}
			},
			{
				"date": "2024-05-14T14:38:05.569Z",
				"repos": {
					"android": {
						"stars": 448,
						"forks": 22,
						"lastRelease": {
							"name": "2.3.0+fork.105.moshinda",
							"publish_at": "2024-05-05T20:35:03Z"
						}
					}
				}
			},
			{
				"date": "2024-05-14T15:38:05.642Z",
				"repos": {
					"android": {
						"stars": 448,
						"forks": 22,
						"lastRelease": {
							"name": "2.3.0+fork.105.moshinda",
							"publish_at": "2024-05-05T20:35:03Z"
						}
					}
				}
			},
			{
				"date": "2024-05-14T16:38:05.691Z",
				"repos": {
					"android": {
						"stars": 448,
						"forks": 22,
						"lastRelease": {
							"name": "2.3.0+fork.105.moshinda",
							"publish_at": "2024-05-05T20:35:03Z"
						}
					}
				}
			}
		],
		"lastRepoImport": {
			"date": "2024-05-14T16:38:05.691Z",
			"repos": {
				"android": {
					"stars": 448,
					"forks": 22,
					"lastRelease": {
						"name": "2.3.0+fork.105.moshinda",
						"publish_at": "2024-05-05T20:35:03Z"
					}
				}
			}
		}
	},
	{
		"_id": {
			"$oid": "663bc466846592744f8dbe46"
		},
		"projectId": {
			"$oid": "65b0164b8a0cf6fef287a8a3"
		},
		"history": [
			{
				"date": "2024-05-12T19:08:20.348Z",
				"repos": {
					"self-host": {
						"stars": 1317,
						"forks": 173,
						"lastRelease": {
							"name": "v7.0.2",
							"publish_at": "2024-05-02T16:06:43Z"
						}
					}
				}
			},
			{
				"date": "2024-05-14T13:38:05.980Z",
				"repos": {
					"self-host": {
						"stars": 1322,
						"forks": 174,
						"lastRelease": {
							"name": "v7.0.2",
							"publish_at": "2024-05-02T16:06:43Z"
						}
					}
				}
			},
			{
				"date": "2024-05-14T14:38:05.446Z",
				"repos": {
					"self-host": {
						"stars": 1322,
						"forks": 174,
						"lastRelease": {
							"name": "v7.0.2",
							"publish_at": "2024-05-02T16:06:43Z"
						}
					}
				}
			},
			{
				"date": "2024-05-14T15:38:05.478Z",
				"repos": {
					"self-host": {
						"stars": 1322,
						"forks": 174,
						"lastRelease": {
							"name": "v7.0.2",
							"publish_at": "2024-05-02T16:06:43Z"
						}
					}
				}
			},
			{
				"date": "2024-05-14T16:38:05.488Z",
				"repos": {
					"self-host": {
						"stars": 1322,
						"forks": 174,
						"lastRelease": {
							"name": "v7.0.2",
							"publish_at": "2024-05-02T16:06:43Z"
						}
					}
				}
			}
		],
		"lastRepoImport": {
			"date": "2024-05-16T23:22:46.938Z",
			"repos": {
				"self-host": {
					"stars": 1324,
					"forks": 175,
					"lastRelease": {
						"name": "v7.0.2",
						"publish_at": "2024-05-02T16:06:43Z"
					}
				}
			}
		}
	},
	{
		"_id": {
			"$oid": "663bc794846592744f8dbe47"
		},
		"projectId": {
			"$oid": "65aa9e08dd06203b79f6260e"
		},
		"history": [
			{
				"date": "2024-05-16T22:33:48.978Z",
				"repos": {
					"self-host": {
						"stars": 1236,
						"forks": 287,
						"lastRelease": {
							"name": "Bludit v3.15.0",
							"publish_at": "2023-07-15T14:32:28Z"
						}
					}
				}
			}
		],
		"lastRepoImport": {
			"date": "2024-05-16T22:33:48.978Z",
			"repos": {
				"self-host": {
					"stars": 1236,
					"forks": 287,
					"lastRelease": {
						"name": "Bludit v3.15.0",
						"publish_at": "2023-07-15T14:32:28Z"
					}
				}
			}
		}
	},
	{
		"_id": {
			"$oid": "663bc798846592744f8dbe48"
		},
		"projectId": {
			"$oid": "65b01cea8a0cf6fef287a8a7"
		},
		"history": [
			{
				"date": "2024-05-14T16:38:05.721Z",
				"repos": {
					"self-host": {
						"stars": 12617,
						"forks": 1442,
						"lastRelease": {
							"name": "v6.1.0",
							"publish_at": "2024-04-29T07:42:25Z"
						}
					}
				}
			}
		],
		"lastRepoImport": {
			"date": "2024-05-14T16:38:05.721Z",
			"repos": {
				"self-host": {
					"stars": 12617,
					"forks": 1442,
					"lastRelease": {
						"name": "v6.1.0",
						"publish_at": "2024-04-29T07:42:25Z"
					}
				}
			}
		}
	},
	{
		"_id": {
			"$oid": "663bc79b846592744f8dbe49"
		},
		"projectId": {
			"$oid": "65b01d8b8a0cf6fef287a8a9"
		},
		"history": [
			{
				"date": "2024-05-14T16:38:05.682Z",
				"repos": {
					"self-host": {
						"stars": 12835,
						"forks": 856,
						"lastRelease": {
							"name": "v0.19.3 Release",
							"publish_at": "2024-01-22T15:06:05Z"
						}
					}
				}
			}
		],
		"lastRepoImport": {
			"date": "2024-05-14T16:38:05.682Z",
			"repos": {
				"self-host": {
					"stars": 12835,
					"forks": 856,
					"lastRelease": {
						"name": "v0.19.3 Release",
						"publish_at": "2024-01-22T15:06:05Z"
					}
				}
			}
		}
	},
	{
		"_id": {
			"$oid": "663bc7cc846592744f8dbe4a"
		},
		"projectId": {
			"$oid": "65b0213f8a0cf6fef287a8ae"
		},
		"history": [
			{
				"date": "2024-05-14T16:38:06.173Z",
				"repos": {
					"self-host": {
						"stars": 46057,
						"forks": 6747,
						"lastRelease": {
							"name": "v4.2.8",
							"publish_at": "2024-02-23T13:45:12Z"
						}
					},
					"ios": {
						"stars": 1981,
						"forks": 245,
						"lastRelease": {
							"name": "2024.4",
							"publish_at": "2024-04-20T10:56:57Z"
						}
					},
					"android": {
						"stars": 1616,
						"forks": 248,
						"lastRelease": {
							"name": "2.5.0",
							"publish_at": "2024-04-12T15:37:41Z"
						}
					}
				}
			}
		],
		"lastRepoImport": {
			"date": "2024-05-14T16:38:06.173Z",
			"repos": {
				"self-host": {
					"stars": 46057,
					"forks": 6747,
					"lastRelease": {
						"name": "v4.2.8",
						"publish_at": "2024-02-23T13:45:12Z"
					}
				},
				"ios": {
					"stars": 1981,
					"forks": 245,
					"lastRelease": {
						"name": "2024.4",
						"publish_at": "2024-04-20T10:56:57Z"
					}
				},
				"android": {
					"stars": 1616,
					"forks": 248,
					"lastRelease": {
						"name": "2.5.0",
						"publish_at": "2024-04-12T15:37:41Z"
					}
				}
			}
		}
	},
	{
		"_id": {
			"$oid": "663bc7cc846592744f8dbe4b"
		},
		"projectId": {
			"$oid": "65b021fe8a0cf6fef287a8af"
		},
		"history": [
			{
				"date": "2024-05-14T16:38:05.787Z",
				"repos": {
					"self-host": {
						"stars": 5438,
						"forks": 652,
						"lastRelease": {
							"name": "v0.12.1",
							"publish_at": "2024-05-07T07:16:40Z"
						}
					}
				}
			}
		],
		"lastRepoImport": {
			"date": "2024-05-14T16:38:05.787Z",
			"repos": {
				"self-host": {
					"stars": 5438,
					"forks": 652,
					"lastRelease": {
						"name": "v0.12.1",
						"publish_at": "2024-05-07T07:16:40Z"
					}
				}
			}
		}
	},
	{
		"_id": {
			"$oid": "663bc7cc846592744f8dbe4c"
		},
		"projectId": {
			"$oid": "65b022108a0cf6fef287a8b0"
		},
		"history": [
			{
				"date": "2024-05-14T14:38:05.701Z",
				"repos": {
					"dev": {
						"stars": 2069,
						"forks": 409,
						"lastRelease": {
							"name": "0.4.19.post1",
							"publish_at": "2024-02-28T16:49:36Z"
						}
					}
				}
			}
		],
		"lastRepoImport": {
			"date": "2024-05-14T16:38:05.723Z",
			"repos": {
				"dev": {
					"stars": 2070,
					"forks": 409,
					"lastRelease": {
						"name": "0.4.19.post1",
						"publish_at": "2024-02-28T16:49:36Z"
					}
				}
			}
		}
	}
]
