<?xml version="1.0" encoding="UTF-8" standalone="no"?>
<!DOCTYPE svg PUBLIC "-//W3C//DTD SVG 1.1//EN" "http://www.w3.org/Graphics/SVG/1.1/DTD/svg11.dtd">
<svg width="100%" height="100%" viewBox="0 0 149 80" version="1.1" xmlns="http://www.w3.org/2000/svg" xmlns:xlink="http://www.w3.org/1999/xlink" xml:space="preserve" xmlns:serif="http://www.serif.com/" style="fill-rule:evenodd;clip-rule:evenodd;stroke-linejoin:round;stroke-miterlimit:2;">
    <g transform="matrix(1,0,0,1,-3083,-1471)">
        <g transform="matrix(1,0,0,1,2905.56,710.159)">
            <g transform="matrix(0.676263,0,0,2.37088,-191.541,-1204.12)">
                <g transform="matrix(1.32719,0,0,0.378562,-3666.74,-1248.32)">
                    <clipPath id="_clip1">
                        <path d="M3195.97,5575.13C3196.6,5575.13 3197.1,5574.63 3197.1,5574L3197.1,5574C3197.1,5573.38 3196.6,5572.87 3195.97,5572.87C3192.26,5572.87 3180.52,5572.87 3177.86,5572.87C3177.57,5572.87 3177.32,5572.63 3177.32,5572.33L3177.32,5542.69C3177.32,5542.36 3177.19,5542.04 3176.96,5541.81C3176.72,5541.57 3176.4,5541.44 3176.07,5541.44C3176.07,5541.44 3176.07,5541.44 3176.07,5541.44C3175.38,5541.44 3174.82,5542 3174.82,5542.69C3174.82,5548.02 3174.82,5568.77 3174.82,5573.95C3174.82,5574.6 3175.35,5575.13 3176,5575.13C3179.87,5575.13 3192.17,5575.13 3195.97,5575.13Z" clip-rule="nonzero"/>
                    </clipPath>
                    <g clip-path="url(#_clip1)">
                        <g transform="matrix(1.11417,-0,-0,1.11417,3173.9,5486.83)">
                            <use xlink:href="#_Image2" x="0.83" y="50.256" width="20px" height="30.237px" transform="matrix(0.999982,0,0,0.975389,0,0)"/>
                        </g>
                    </g>
                </g>
                <g transform="matrix(1.32719,0,0,0.378562,-3666.74,-1248.32)">
                    <clipPath id="_clip3">
                        <path d="M3252.35,5575.13C3252.64,5575.13 3252.9,5575.02 3253.1,5574.82C3253.3,5574.62 3253.41,5574.35 3253.41,5574.07C3253.41,5574.07 3253.41,5574.07 3253.41,5574.07C3253.41,5573.79 3253.3,5573.52 3253.1,5573.32C3252.9,5573.13 3252.64,5573.01 3252.35,5573.01C3249.24,5573.01 3240.12,5573.01 3236.87,5573.01C3236.66,5573.01 3236.47,5572.89 3236.38,5572.7C3236.29,5572.51 3236.32,5572.28 3236.45,5572.12C3239.57,5568.41 3251.39,5554.35 3253.18,5552.21C3253.33,5552.03 3253.41,5551.81 3253.41,5551.58C3253.41,5551.57 3253.41,5551.57 3253.41,5551.57C3253.41,5551.03 3252.97,5550.59 3252.43,5550.59C3248.99,5550.59 3237.47,5550.59 3233.92,5550.59C3233.64,5550.59 3233.37,5550.7 3233.17,5550.9C3232.97,5551.09 3232.86,5551.36 3232.86,5551.64C3232.86,5551.65 3232.86,5551.65 3232.86,5551.65C3232.86,5551.93 3232.97,5552.2 3233.17,5552.4C3233.37,5552.59 3233.64,5552.7 3233.92,5552.7C3236.95,5552.7 3245.68,5552.7 3248.78,5552.7C3248.99,5552.7 3249.17,5552.82 3249.26,5553.01C3249.34,5553.19 3249.31,5553.4 3249.18,5553.56C3246.12,5557.2 3234.23,5571.36 3232.42,5573.51C3232.27,5573.69 3232.19,5573.91 3232.19,5574.14C3232.19,5574.14 3232.19,5574.15 3232.19,5574.15C3232.19,5574.41 3232.29,5574.66 3232.48,5574.84C3232.66,5575.03 3232.91,5575.13 3233.17,5575.13C3236.7,5575.13 3248.71,5575.13 3252.35,5575.13Z" clip-rule="nonzero"/>
                    </clipPath>
                    <g clip-path="url(#_clip3)">
                        <g transform="matrix(1.11417,-0,-0,1.11417,3173.9,5486.83)">
                            <use xlink:href="#_Image4" x="54.93" y="59.747" width="19.049px" height="22.03px" transform="matrix(0.952467,0,0,0.95782,0,0)"/>
                        </g>
                    </g>
                </g>
                <g transform="matrix(-0.656096,-2.29183e-17,8.03486e-17,-0.187142,2954.94,1213.81)">
                    <clipPath id="_clip5">
                        <path d="M3592.05,1881.77L3589.22,1881.77C3584.14,1881.77 3580.91,1883.35 3578.17,1886.44C3575.44,1889.54 3574.07,1893.66 3574.07,1898.8L3574.07,1926.02C3574.07,1926.65 3573.82,1927.26 3573.37,1927.71C3572.92,1928.16 3572.31,1928.41 3571.68,1928.41C3571.68,1928.41 3571.68,1928.41 3571.67,1928.41C3570.35,1928.41 3569.28,1927.34 3569.28,1926.02C3569.28,1918.83 3569.28,1897.92 3569.28,1897.92C3569.28,1894.93 3569.72,1892.17 3570.6,1889.67C3571.48,1887.16 3572.78,1884.99 3574.51,1883.17C3576.24,1881.34 3578.34,1879.93 3580.81,1878.92C3583.29,1877.91 3586.09,1877.4 3589.22,1877.4L3592.05,1877.4C3595.18,1877.4 3597.98,1877.91 3600.45,1878.92C3602.93,1879.93 3605.03,1881.34 3606.76,1883.17C3608.48,1884.99 3609.79,1887.16 3610.67,1889.67C3611.55,1892.17 3611.99,1894.93 3611.99,1897.92L3611.99,1926.02C3611.99,1927.34 3610.91,1928.41 3609.59,1928.41C3609.59,1928.41 3609.59,1928.41 3609.59,1928.41C3608.96,1928.41 3608.35,1928.16 3607.9,1927.71C3607.45,1927.26 3607.2,1926.65 3607.2,1926.02C3607.2,1918.98 3607.2,1898.8 3607.2,1898.8C3607.2,1893.66 3605.83,1889.54 3603.09,1886.44C3600.36,1883.35 3597.13,1881.77 3592.05,1881.77Z" clip-rule="nonzero"/>
                    </clipPath>
                    <g clip-path="url(#_clip5)">
                        <g transform="matrix(-2.25381,2.76012e-16,-2.76012e-16,-2.25381,3672.21,2057.39)">
                            <use xlink:href="#_Image6" x="26.792" y="58.153" width="18.948px" height="22.633px" transform="matrix(0.99726,0,0,0.984064,0,0)"/>
                        </g>
                    </g>
                </g>
                <g transform="matrix(0.655684,0,0,0.187025,-1605.55,515.572)">
                    <clipPath id="_clip7">
                        <path d="M3526.37,1828.58C3526.37,1827.39 3527.33,1826.43 3528.51,1826.43C3533.41,1826.43 3545.25,1826.43 3549.04,1826.43C3549.35,1826.43 3549.64,1826.3 3549.84,1826.07C3550.05,1825.84 3550.14,1825.53 3550.11,1825.23C3549.86,1823.12 3549.39,1821.09 3548.71,1819.15C3547.89,1816.83 3546.75,1814.78 3545.28,1812.99C3543.81,1811.2 3541.99,1809.76 3539.84,1808.69C3537.68,1807.61 3535.17,1807.08 3532.29,1807.08C3529.81,1807.08 3527.49,1807.57 3525.34,1808.54C3523.18,1809.52 3521.3,1810.87 3519.7,1812.6C3518.1,1814.33 3516.78,1816.38 3515.73,1818.76C3514.69,1821.13 3514.07,1823.69 3513.87,1826.43C3513.87,1826.43 3513.78,1829.15 3513.87,1830.73C3513.94,1831.84 3514.76,1836.59 3515.93,1838.99C3517.11,1841.39 3518.58,1843.43 3520.34,1845.12C3522.1,1846.8 3524.11,1848.08 3526.37,1848.96C3528.62,1849.83 3530.99,1850.27 3533.47,1850.27C3537.39,1850.27 3540.7,1849.52 3543.41,1848.02C3545.52,1846.86 3547.45,1845.47 3549.18,1843.88C3550.01,1843.09 3551.31,1843.07 3552.17,1843.83C3552.17,1843.83 3552.17,1843.83 3552.17,1843.83C3552.64,1844.24 3552.91,1844.83 3552.93,1845.45C3552.94,1846.08 3552.69,1846.68 3552.24,1847.11C3550.12,1849.08 3547.81,1850.77 3545.28,1852.18C3542.05,1853.97 3538.05,1854.86 3533.28,1854.86C3530.01,1854.86 3526.89,1854.25 3523.92,1853.01C3520.95,1851.77 3518.34,1850.01 3516.09,1847.73C3513.84,1845.45 3512.06,1842.71 3510.75,1839.52C3509.44,1836.33 3508.79,1832.78 3508.79,1828.87L3508.79,1828.67C3508.79,1825.09 3509.39,1821.72 3510.6,1818.56C3511.8,1815.4 3513.47,1812.65 3515.58,1810.3C3517.7,1807.96 3520.19,1806.1 3523.06,1804.73C3525.93,1803.36 3529.05,1802.68 3532.44,1802.68C3535.96,1802.68 3539.12,1803.35 3541.92,1804.68C3544.72,1806.02 3547.11,1807.86 3549.1,1810.2C3551.09,1812.55 3552.62,1815.3 3553.69,1818.46C3554.77,1821.62 3555.31,1825.06 3555.31,1828.77C3555.31,1828.77 3555.3,1829.25 3555.28,1829.74C3555.24,1830.3 3554.77,1830.72 3554.22,1830.72C3550.1,1830.73 3534.31,1830.73 3528.51,1830.73C3527.33,1830.73 3526.37,1829.76 3526.37,1828.58C3526.37,1828.58 3526.37,1828.58 3526.37,1828.58Z" clip-rule="nonzero"/>
                    </clipPath>
                    <g clip-path="url(#_clip7)">
                        <g transform="matrix(2.25522,-0,-0,2.25522,3280.81,1674.74)">
                            <use xlink:href="#_Image8" x="102.924" y="58.843" width="20.626px" height="23.139px" transform="matrix(0.982191,0,0,0.964136,0,0)"/>
                        </g>
                    </g>
                </g>
                <g transform="matrix(0.0999205,0,0,0.118272,573.648,771.398)">
                    <g transform="matrix(5.87547,0,0,1.41586,-20291.1,-4748.86)">
                        <clipPath id="_clip9">
                            <path d="M3733.02,3852.36M3779.64,3868.8C3779.64,3873.24 3778.7,3877.45 3777.01,3881.22C3776.62,3882.05 3775.88,3882.62 3775.01,3882.78C3774.77,3882.82 3774.52,3882.83 3774.29,3882.8C3773.67,3882.75 3773.06,3882.48 3772.62,3882.02L3772.6,3882.01C3771.8,3881.17 3771.57,3879.91 3772.04,3878.83C3773.33,3875.78 3774.05,3872.39 3774.05,3868.81C3774.05,3855.51 3764.16,3844.7 3751.98,3844.7C3748.31,3844.7 3744.84,3845.69 3741.79,3847.43C3740.8,3848.01 3739.55,3847.85 3738.75,3847.02C3738.18,3846.43 3737.91,3845.61 3738.03,3844.79C3738.14,3843.97 3738.62,3843.26 3739.32,3842.86C3743.12,3840.82 3747.43,3839.66 3751.98,3839.66C3761.12,3839.66 3769.23,3844.34 3774.24,3851.57L3774.28,3851.62L3774.28,3819.64C3774.28,3818.16 3775.48,3816.96 3776.96,3816.96C3776.96,3816.96 3776.96,3816.96 3776.96,3816.96C3778.44,3816.96 3779.64,3818.16 3779.64,3819.64C3779.64,3819.64 3779.64,3868.8 3779.64,3868.8Z"/>
                        </clipPath>
                        <g clip-path="url(#_clip9)">
                            <g transform="matrix(2.51876,-0,-0,2.51876,3405.78,3696.76)">
                                <use xlink:href="#_Image10" x="133.359" y="49.286" width="18.51px" height="26.144px" transform="matrix(0.97421,0,0,0.968301,0,0)"/>
                            </g>
                        </g>
                    </g>
                    <g transform="matrix(5.87547,0,0,1.41586,-20291.1,-4748.86)">
                        <clipPath id="_clip11">
                            <path d="M3733.02,3852.36C3733.92,3853.29 3734.08,3854.74 3733.4,3855.85C3731.19,3859.58 3729.91,3864.03 3729.91,3868.81C3729.91,3882.12 3739.8,3892.92 3751.98,3892.92C3756.74,3892.92 3761.15,3891.27 3764.75,3888.47C3765.77,3887.65 3767.22,3887.72 3768.14,3888.65L3768.15,3888.66C3768.68,3889.21 3768.95,3889.97 3768.89,3890.74C3768.84,3891.51 3768.46,3892.22 3767.86,3892.69C3763.35,3895.99 3757.88,3897.94 3751.98,3897.94C3736.71,3897.94 3724.32,3884.88 3724.32,3868.8C3724.32,3862.89 3725.99,3857.39 3728.87,3852.79C3729.32,3852.1 3730.04,3851.66 3730.84,3851.58C3731.63,3851.5 3732.45,3851.78 3733.02,3852.36Z"/>
                        </clipPath>
                        <g clip-path="url(#_clip11)">
                            <g transform="matrix(2.51876,-0,-0,2.51876,3405.78,3696.76)">
                                <use xlink:href="#_Image12" x="128.597" y="63.428" width="17.701px" height="18.411px" transform="matrix(0.983406,0,0,0.968987,0,0)"/>
                            </g>
                        </g>
                    </g>
                </g>
                <g transform="matrix(0.655684,0,0,0.187025,-1643.06,515.572)">
                    <clipPath id="_clip13">
                        <path d="M3526.37,1828.58C3526.37,1827.39 3527.33,1826.43 3528.51,1826.43C3533.41,1826.43 3545.25,1826.43 3549.04,1826.43C3549.35,1826.43 3549.64,1826.3 3549.84,1826.07C3550.05,1825.84 3550.14,1825.53 3550.11,1825.23C3549.86,1823.12 3549.39,1821.09 3548.71,1819.15C3547.89,1816.83 3546.75,1814.78 3545.28,1812.99C3543.81,1811.2 3541.99,1809.76 3539.84,1808.69C3537.68,1807.61 3535.17,1807.08 3532.29,1807.08C3529.81,1807.08 3527.49,1807.57 3525.34,1808.54C3523.18,1809.52 3521.3,1810.87 3519.7,1812.6C3518.1,1814.33 3516.78,1816.38 3515.73,1818.76C3514.69,1821.13 3514.07,1823.69 3513.87,1826.43C3513.87,1826.43 3513.78,1829.15 3513.87,1830.73C3513.94,1831.84 3514.76,1836.59 3515.93,1838.99C3517.11,1841.39 3518.58,1843.43 3520.34,1845.12C3522.1,1846.8 3524.11,1848.08 3526.37,1848.96C3528.62,1849.83 3530.99,1850.27 3533.47,1850.27C3537.39,1850.27 3540.7,1849.52 3543.41,1848.02C3545.52,1846.86 3547.45,1845.47 3549.18,1843.88C3550.01,1843.09 3551.31,1843.07 3552.17,1843.83C3552.17,1843.83 3552.17,1843.83 3552.17,1843.83C3552.64,1844.24 3552.91,1844.83 3552.93,1845.45C3552.94,1846.08 3552.69,1846.68 3552.24,1847.11C3550.12,1849.08 3547.81,1850.77 3545.28,1852.18C3542.05,1853.97 3538.05,1854.86 3533.28,1854.86C3530.01,1854.86 3526.89,1854.25 3523.92,1853.01C3520.95,1851.77 3518.34,1850.01 3516.09,1847.73C3513.84,1845.45 3512.06,1842.71 3510.75,1839.52C3509.44,1836.33 3508.79,1832.78 3508.79,1828.87L3508.79,1828.67C3508.79,1825.09 3509.39,1821.72 3510.6,1818.56C3511.8,1815.4 3513.47,1812.65 3515.58,1810.3C3517.7,1807.96 3520.19,1806.1 3523.06,1804.73C3525.93,1803.36 3529.05,1802.68 3532.44,1802.68C3535.96,1802.68 3539.12,1803.35 3541.92,1804.68C3544.72,1806.02 3547.11,1807.86 3549.1,1810.2C3551.09,1812.55 3552.62,1815.3 3553.69,1818.46C3554.77,1821.62 3555.31,1825.06 3555.31,1828.77C3555.31,1828.77 3555.3,1829.25 3555.28,1829.74C3555.24,1830.3 3554.77,1830.72 3554.22,1830.72C3550.1,1830.73 3534.31,1830.73 3528.51,1830.73C3527.33,1830.73 3526.37,1829.76 3526.37,1828.58C3526.37,1828.58 3526.37,1828.58 3526.37,1828.58Z" clip-rule="nonzero"/>
                    </clipPath>
                    <g clip-path="url(#_clip13)">
                        <g transform="matrix(2.25522,-0,-0,2.25522,3338.01,1674.74)">
                            <use xlink:href="#_Image14" x="77.101" y="58.843" width="20.626px" height="23.139px" transform="matrix(0.982191,0,0,0.964136,0,0)"/>
                        </g>
                    </g>
                </g>
            </g>
            <g transform="matrix(0.716806,0,0,2.51302,-218.779,-1325.28)">
                <g transform="matrix(0.679509,0,0,0.193821,-1467.75,-318.474)">
                    <circle cx="3189.98" cy="5934.35" r="6.912" style="fill:rgb(247,69,111);"/>
                </g>
                <g transform="matrix(0.599668,0,0,0.171047,-1420.38,-261.19)">
                    <path d="M3387.17,6442.98C3385.43,6439.31 3384.47,6435.23 3384.47,6430.94C3384.47,6414.84 3398.08,6401.76 3414.85,6401.76C3431.18,6401.76 3444.51,6414.16 3445.2,6429.68C3451.12,6430.29 3457.51,6430.7 3464.01,6430.7C3470.5,6430.7 3476.89,6430.29 3482.81,6429.68C3483.5,6414.16 3496.83,6401.76 3513.16,6401.76C3529.93,6401.76 3543.54,6414.84 3543.54,6430.94C3543.54,6447.04 3529.93,6460.12 3513.16,6460.12C3500.92,6460.12 3490.36,6453.15 3485.55,6443.12C3478.89,6443.89 3471.51,6444.43 3464.01,6444.43C3456.5,6444.43 3449.12,6443.89 3442.46,6443.12C3440.79,6446.6 3438.43,6449.71 3435.55,6452.29L3426.97,6441.17C3426.04,6439.96 3424.6,6439.25 3423.07,6439.25C3421.55,6439.25 3420.11,6439.96 3419.18,6441.17L3416.79,6444.26L3426.41,6457.93C3425.9,6458.13 3425.38,6458.32 3424.85,6458.5L3404.66,6429.8C3403.72,6428.46 3402.19,6427.66 3400.55,6427.66C3398.91,6427.66 3397.38,6428.46 3396.44,6429.8L3387.17,6442.98ZM3417.72,6419.61C3419.88,6419.61 3421.64,6421.36 3421.64,6423.52C3421.64,6425.68 3419.88,6427.43 3417.72,6427.43C3415.57,6427.43 3413.82,6425.68 3413.82,6423.52C3413.82,6421.36 3415.57,6419.61 3417.72,6419.61Z" style="fill:url(#_Linear15);"/>
                </g>
            </g>
        </g>
    </g>
    <defs>
        <image id="_Image2" width="20px" height="31px" xlink:href="data:image/jpeg;base64,/9j/4AAQSkZJRgABAQEAYABgAAD/2wBDAAUDBAQEAwUEBAQFBQUGBwwIBwcHBw8LCwkMEQ8SEhEPERETFhwXExQaFRERGCEYGh0dHx8fExciJCIeJBweHx7/2wBDAQUFBQcGBw4ICA4eFBEUHh4eHh4eHh4eHh4eHh4eHh4eHh4eHh4eHh4eHh4eHh4eHh4eHh4eHh4eHh4eHh4eHh7/wAARCAAfABQDAREAAhEBAxEB/8QAFgABAQEAAAAAAAAAAAAAAAAAAgMH/8QAFhABAQEAAAAAAAAAAAAAAAAAAQAR/8QAFwEBAQEBAAAAAAAAAAAAAAAABAUGB//EABcRAQEBAQAAAAAAAAAAAAAAAAIAAyH/2gAMAwEAAhEDEQA/ANQGNobleTkMDQ1PJy2Gj2oF8ojaPQ2RycyDoank5ENHs8vlEbRaGyWTkQdDUsnLYaHagXyiNo9DZLJzIOhqWTlsNHtQL5f/2Q=="/>
        <image id="_Image4" width="20px" height="23px" xlink:href="data:image/jpeg;base64,/9j/4AAQSkZJRgABAQEAYABgAAD/2wBDAAUDBAQEAwUEBAQFBQUGBwwIBwcHBw8LCwkMEQ8SEhEPERETFhwXExQaFRERGCEYGh0dHx8fExciJCIeJBweHx7/2wBDAQUFBQcGBw4ICA4eFBEUHh4eHh4eHh4eHh4eHh4eHh4eHh4eHh4eHh4eHh4eHh4eHh4eHh4eHh4eHh4eHh4eHh7/wAARCAAXABQDAREAAhEBAxEB/8QAFgABAQEAAAAAAAAAAAAAAAAAAgMH/8QAFhABAQEAAAAAAAAAAAAAAAAAAQAR/8QAFwEBAQEBAAAAAAAAAAAAAAAABAUGB//EABgRAAMBAQAAAAAAAAAAAAAAAAACAyEB/9oADAMBAAIRAxEAPwDXS5JRSxJxjBopSk4iJ1dHq+ES0NFMnJxDCopSk4th9XR6vhItDRTJycQwqKUpOLYnV0er4f/Z"/>
        <image id="_Image6" width="19px" height="23px" xlink:href="data:image/png;base64,iVBORw0KGgoAAAANSUhEUgAAABMAAAAXCAYAAADpwXTaAAAACXBIWXMAAA7EAAAOxAGVKw4bAAABCklEQVQ4ja2Ty1EEMQxEX2udOhkQGBGpOdjYGrMLxZjDHFolS/0Z6f3jzUESTgLzcLJwEjaPX3CQvZaIRHh8E0uYwBq1H/DXu5hAUYaIvnct8cCXHl1xW80GIBEokLOzsEACgyTsPgACkZMVRJdZ2RkBYJismLXFFI0eLdzqZFHZ/J1dfDP6IIyWgyLW2qoAZ2ERw80aRgL1DTQTeDPyrtzwEyOv5j8P45ncniax+TTw9GTHa7DLsjCx/Xz3w2jdVhVP7ofR5hCEDsOISv1UbjAbGdd5xdNoaab+qid2Nifs2mooxt4MY5yTkOE0jHgl747ctlM9kRsjwHkurrjcJwV7VC5YDM/+id0nuUGfVnW00QAAAAAASUVORK5CYII="/>
        <image id="_Image8" width="21px" height="24px" xlink:href="data:image/jpeg;base64,/9j/4AAQSkZJRgABAQEAYABgAAD/2wBDAAUDBAQEAwUEBAQFBQUGBwwIBwcHBw8LCwkMEQ8SEhEPERETFhwXExQaFRERGCEYGh0dHx8fExciJCIeJBweHx7/2wBDAQUFBQcGBw4ICA4eFBEUHh4eHh4eHh4eHh4eHh4eHh4eHh4eHh4eHh4eHh4eHh4eHh4eHh4eHh4eHh4eHh4eHh7/wAARCAAYABUDAREAAhEBAxEB/8QAFgABAQEAAAAAAAAAAAAAAAAABAUG/8QAFxABAQEBAAAAAAAAAAAAAAAAAgADIf/EABcBAQEBAQAAAAAAAAAAAAAAAAQDBQf/xAAXEQEBAQEAAAAAAAAAAAAAAAACAAEh/9oADAMBAAIRAxEAPwDcam5mFdgOxNTLCkHYrPZZXK+bW9TYQVlnYuplhSDsVnssrlfNrepsIKzDsTUywq52Kz2WVyvm3//Z"/>
        <image id="_Image10" width="19px" height="27px" xlink:href="data:image/png;base64,iVBORw0KGgoAAAANSUhEUgAAABMAAAAbCAYAAACeA7ShAAAACXBIWXMAAA7EAAAOxAGVKw4bAAAA/UlEQVRIia2VSRLDIAwEWyp+mE/k/5fcohwQi1lsY3JIkVEJ6GFsLJ/X2zCBL8TRf4aPjc61qt91QAwARHw0EADxsdGjftcBrx2aRoskrU41WHRMpm5ptmjqt1jGDETQQlZPbGkbrRTL6VgEt/mETvpzizYHh5n1QhhzsqQXwrgmW7AbydR8hz27WhrpEz3sTlmYRvv/SGb/oQtd00YYoVgYPzsrYfRkG3Z7sg27PdmqXfOaCQqJrJ7Y0g50tty+6Ddf5Ksw/D6bnMNiGCHu8Pyq7smuHsibdssVdEZ202550bVKJ6dXTcy1+UUQctGqIB7SHb9Om2GsfzdPyH6ucK/wqL7ZEgAAAABJRU5ErkJggg=="/>
        <image id="_Image12" width="18px" height="19px" xlink:href="data:image/png;base64,iVBORw0KGgoAAAANSUhEUgAAABIAAAATCAYAAACdkl3yAAAACXBIWXMAAA7EAAAOxAGVKw4bAAAA0ElEQVQ4jZ2TuxbDMAhDLxz+s2P/f+pmOhg3fqfO5AgTIYSRz/vlJCAJuMTZ4UT1XeJtzBAHERAAj7PDEuQCiAMRI7CA/i5/CVwJBdc5C2y5qlwJO1VNgQorWKNgRlCwevZlQWhNQIF0QzhTRK+oJPzbol+DsNUUBgKvfPR60vkfnU5BzyfXKvK64pnx2aPZYzs03naTODH+WpGeYGf8pEW9MxGd3NdFgzcr0tjmVYtFgU9UhqpREXRtLFQNSyvePraHxtuw9Q+NtyFhp2jztr6+ZoSPxz0EAAAAAABJRU5ErkJggg=="/>
        <image id="_Image14" width="21px" height="24px" xlink:href="data:image/jpeg;base64,/9j/4AAQSkZJRgABAQEAYABgAAD/2wBDAAUDBAQEAwUEBAQFBQUGBwwIBwcHBw8LCwkMEQ8SEhEPERETFhwXExQaFRERGCEYGh0dHx8fExciJCIeJBweHx7/2wBDAQUFBQcGBw4ICA4eFBEUHh4eHh4eHh4eHh4eHh4eHh4eHh4eHh4eHh4eHh4eHh4eHh4eHh4eHh4eHh4eHh4eHh7/wAARCAAYABUDAREAAhEBAxEB/8QAFwABAQEBAAAAAAAAAAAAAAAABAUDB//EABkQAAIDAQAAAAAAAAAAAAAAAAACAQMhEf/EABgBAQEBAQEAAAAAAAAAAAAAAAQFAwcA/8QAGREBAQEBAQEAAAAAAAAAAAAAAgABIQMR/9oADAMBAAIRAxEAPwDrdqnDgro52JaosKQdiuuiiuW+bWnjsETObSwvsW1RQUg7FddFFct82rQTmaP5OytU8FNOxXXRRXLfNv/Z"/>
        <linearGradient id="_Linear15" x1="0" y1="0" x2="1" y2="0" gradientUnits="userSpaceOnUse" gradientTransform="matrix(159.075,-58.3591,58.3591,159.075,3384.47,6460.12)"><stop offset="0" style="stop-color:rgb(58,227,204);stop-opacity:1"/><stop offset="0.5" style="stop-color:rgb(247,187,54);stop-opacity:1"/><stop offset="1" style="stop-color:rgb(247,54,118);stop-opacity:1"/></linearGradient>
    </defs>
</svg>
